<?xml version="1.0" encoding="UTF-8" standalone="no"?>
<svg
   viewBox="0 0 298.19711 50.000001"
   version="1.1"
   id="svg3366"
   height="50"
   width="298.19711"
   xmlns="http://www.w3.org/2000/svg"
   xmlns:svg="http://www.w3.org/2000/svg"
   xmlns:rdf="http://www.w3.org/1999/02/22-rdf-syntax-ns#"
   xmlns:cc="http://creativecommons.org/ns#"
   xmlns:dc="http://purl.org/dc/elements/1.1/">
  <defs
     id="defs3368" />
  <metadata
     id="metadata3371">
    <rdf:RDF>
      <cc:Work
         rdf:about="">
        <dc:format>image/svg+xml</dc:format>
        <dc:type
           rdf:resource="http://purl.org/dc/dcmitype/StillImage" />
        <dc:title />
      </cc:Work>
    </rdf:RDF>
  </metadata>
  <g
     id="layer1"
     transform="translate(-29.846047,-619.26055)">
    <g
       style="fill:#ececec"
       id="g3417-9-0"
       transform="matrix(0.49999999,0,0,0.49999999,59.232459,438.42998)">
      <path
         style="fill:#ececec"
         id="path3349-0-2"
         d="m 329.73301,461.63855 c -27.15291,0.8161 -56.42686,-20.53401 -65.38427,-47.68796 -8.96053,-27.14981 5.78415,-49.82143 32.93707,-50.63753 12.15242,-0.36351 24.69426,3.78016 35.68364,10.83196 l -24.66526,34.25857 c -1.70056,2.36027 -1.16305,5.66092 1.18272,7.34904 0.90413,0.65765 1.97189,1.00563 3.09041,1.00563 1.69433,0 3.29339,-0.81921 4.28348,-2.19353 l 24.58966,-34.14879 c 9.6482,8.24281 17.34833,18.85314 21.21962,30.58923 8.96053,27.15291 -5.78415,49.82142 -32.93707,50.63338 z m 12.8225,-88.29927 -28.32217,39.33434 c -0.39873,0.55408 -1.02116,0.84717 -1.65706,0.84717 -0.41012,0 -0.82542,-0.12221 -1.18583,-0.38527 -0.91345,-0.65764 -1.11851,-1.9284 -0.46087,-2.84185 l 28.36671,-39.39751 c 0.75292,1.21379 1.90975,2.09928 3.25922,2.44312 z m 1.249,-11.67809 c -3.00237,0 -5.43307,2.65439 -5.43307,5.92604 0,1.22622 0.34074,2.36441 0.92588,3.30893 0.75293,1.21379 1.90976,2.09825 3.25819,2.44312 0.40494,0.1046 0.8192,0.17088 1.249,0.17088 2.99927,0 5.42996,-2.64818 5.42996,-5.92293 0,-3.27165 -2.43172,-5.92604 -5.42996,-5.92604 z" />
      <g
         style="fill:#ececec"
         transform="matrix(3.4065202,0,0,3.4065202,-443.54991,-1217.6711)"
         id="g3407-2-7">
        <path
           id="path3389-1-9"
           style="font-style:normal;font-variant:normal;font-weight:bold;font-stretch:normal;font-size:40px;line-height:125%;font-family:'Noto Sans';-inkscape-font-specification:'Noto Sans Bold';letter-spacing:0px;word-spacing:0px;fill:#ececec;fill-opacity:1;stroke:none"
           d="m 131.5664,484.65557 q 0,3.86718 -2.79297,6.09375 -2.77344,2.22656 -7.73438,2.22656 -4.57031,0 -8.08593,-1.71875 v -5.625 q 2.89062,1.28906 4.88281,1.8164 2.01172,0.52735 3.67187,0.52735 1.99219,0 3.04688,-0.76172 1.07422,-0.76172 1.07422,-2.26563 0,-0.83984 -0.46875,-1.48437 -0.46875,-0.66406 -1.38672,-1.26953 -0.89844,-0.60547 -3.69141,-1.9336 -2.61719,-1.23046 -3.92578,-2.36328 -1.30859,-1.13281 -2.08984,-2.63672 -0.78125,-1.5039 -0.78125,-3.51562 0,-3.78906 2.55859,-5.95703 2.57813,-2.16797 7.10938,-2.16797 2.22656,0 4.23828,0.52734 2.03125,0.52735 4.23828,1.48438 l -1.95313,4.70703 q -2.28515,-0.9375 -3.78906,-1.30859 -1.48437,-0.3711 -2.92969,-0.3711 -1.71875,0 -2.63672,0.80078 -0.91796,0.80078 -0.91796,2.08985 0,0.80078 0.37109,1.40625 0.37109,0.58593 1.17187,1.15234 0.82032,0.54688 3.84766,1.99219 4.00391,1.91406 5.48828,3.84765 1.48438,1.91407 1.48438,4.70704 z" />
        <path
           id="path3391-2-7"
           style="font-style:normal;font-variant:normal;font-weight:bold;font-stretch:normal;font-size:40px;line-height:125%;font-family:'Noto Sans';-inkscape-font-specification:'Noto Sans Bold';letter-spacing:0px;word-spacing:0px;fill:#ececec;fill-opacity:1;stroke:none"
           d="m 150.14061,492.58525 -1.15234,-2.96875 h -0.15625 q -1.50391,1.89453 -3.10547,2.63672 -1.58203,0.72266 -4.14062,0.72266 -3.14453,0 -4.96094,-1.79688 -1.79688,-1.79687 -1.79688,-5.11718 0,-3.47657 2.42188,-5.11719 2.44141,-1.66016 7.34375,-1.83594 l 3.78906,-0.11719 v -0.95703 q 0,-3.32031 -3.39844,-3.32031 -2.61718,0 -6.15234,1.58203 l -1.97266,-4.02344 q 3.76954,-1.97265 8.35938,-1.97265 4.39453,0 6.73828,1.91406 2.34375,1.91406 2.34375,5.82031 v 14.55078 z m -1.75781,-10.11718 -2.30469,0.0781 q -2.59765,0.0781 -3.86718,0.9375 -1.26953,0.85938 -1.26953,2.61719 0,2.51953 2.89062,2.51953 2.07031,0 3.30078,-1.19141 1.25,-1.1914 1.25,-3.16406 v -1.79687 z" />
        <path
           id="path3393-9-9"
           style="font-style:normal;font-variant:normal;font-weight:bold;font-stretch:normal;font-size:40px;line-height:125%;font-family:'Noto Sans';-inkscape-font-specification:'Noto Sans Bold';letter-spacing:0px;word-spacing:0px;fill:#ececec;fill-opacity:1;stroke:none"
           d="m 169.61327,488.22978 q 1.5625,0 3.75,-0.68359 v 4.43359 q -2.22656,0.9961 -5.46875,0.9961 -3.57422,0 -5.21484,-1.79688 -1.6211,-1.8164 -1.6211,-5.42968 v -10.52735 h -2.85156 v -2.51953 l 3.28125,-1.99219 1.71875,-4.60937 h 3.80859 v 4.64844 h 6.11329 v 4.47265 h -6.11329 v 10.52735 q 0,1.26953 0.70313,1.875 0.72266,0.60546 1.89453,0.60546 z" />
        <path
           id="path3395-1-0"
           style="font-style:normal;font-variant:normal;font-weight:bold;font-stretch:normal;font-size:40px;line-height:125%;font-family:'Noto Sans';-inkscape-font-specification:'Noto Sans Bold';letter-spacing:0px;word-spacing:0px;fill:#ececec;fill-opacity:1;stroke:none"
           d="m 203.55858,492.58525 h -7.69531 L 183.4414,470.98369 h -0.17579 q 0.3711,5.72266 0.3711,8.16406 v 13.4375 h -5.41016 v -28.55468 h 7.63672 l 12.40234,21.38671 h 0.13672 q -0.29297,-5.5664 -0.29297,-7.87109 v -13.51562 h 5.44922 z" />
      </g>
      <g
         style="fill:#ececec"
         transform="matrix(3.4065202,0,0,3.4065202,-336.37724,-1217.6711)"
         id="g3413-7-4">
        <path
           id="path3397-3-0"
           style="font-style:normal;font-variant:normal;font-weight:bold;font-stretch:normal;font-size:40px;line-height:125%;font-family:'Noto Sans';-inkscape-font-specification:'Noto Sans Bold';letter-spacing:0px;word-spacing:0px;fill:#ececec;fill-opacity:1;stroke:none"
           d="m 221.5664,476.5501 h 11.32812 v 14.80468 q -2.75391,0.89844 -5.19531,1.25 -2.42188,0.3711 -4.96094,0.3711 -6.46484,0 -9.88281,-3.78906 -3.39844,-3.8086 -3.39844,-10.91797 0,-6.91407 3.94531,-10.78125 3.96485,-3.86719 10.97657,-3.86719 4.39453,0 8.47656,1.75781 l -2.01172,4.84375 q -3.125,-1.5625 -6.50391,-1.5625 -3.92578,0 -6.28906,2.63672 -2.36328,2.63672 -2.36328,7.08984 0,4.64844 1.89453,7.10938 1.91406,2.44141 5.54688,2.44141 1.89453,0 3.84765,-0.39063 v -5.95703 h -5.41015 z" />
        <path
           id="path3399-2-3"
           style="font-style:normal;font-variant:normal;font-weight:bold;font-stretch:normal;font-size:40px;line-height:125%;font-family:'Noto Sans';-inkscape-font-specification:'Noto Sans Bold';letter-spacing:0px;word-spacing:0px;fill:#ececec;fill-opacity:1;stroke:none"
           d="m 256.5664,484.65557 q 0,3.86718 -2.79297,6.09375 -2.77344,2.22656 -7.73438,2.22656 -4.57031,0 -8.08594,-1.71875 v -5.625 q 2.89063,1.28906 4.88282,1.8164 2.01172,0.52735 3.67187,0.52735 1.99219,0 3.04688,-0.76172 1.07422,-0.76172 1.07422,-2.26563 0,-0.83984 -0.46875,-1.48437 -0.46875,-0.66406 -1.38672,-1.26953 -0.89844,-0.60547 -3.69141,-1.9336 -2.61719,-1.23046 -3.92578,-2.36328 -1.30859,-1.13281 -2.08984,-2.63672 -0.78125,-1.5039 -0.78125,-3.51562 0,-3.78906 2.55859,-5.95703 2.57812,-2.16797 7.10937,-2.16797 2.22657,0 4.23829,0.52734 2.03125,0.52735 4.23828,1.48438 l -1.95313,4.70703 q -2.28515,-0.9375 -3.78906,-1.30859 -1.48438,-0.3711 -2.92969,-0.3711 -1.71875,0 -2.63672,0.80078 -0.91797,0.80078 -0.91797,2.08985 0,0.80078 0.3711,1.40625 0.37109,0.58593 1.17187,1.15234 0.82032,0.54688 3.84766,1.99219 4.00391,1.91406 5.48828,3.84765 1.48438,1.91407 1.48438,4.70704 z" />
      </g>
    </g>
  </g>
</svg>
